M48
METRIC
T01C.2
T02C.33
T03C.9
T04C1.8
;LEADER: 12 
;HEADER: 
;CODE  : ASCII 
;FILE  : PCB-1-2.drl for  ... layers TOP and BOTTOM
;DESIGN: PCB.brd
;T01 Holesize 1. = 0.200000 Tolerance = +0.100000/-0.100000 PLATED MM Quantity = 19
;T02 Holesize 2. = 0.330000 Tolerance = +0.000000/-0.000000 PLATED MM Quantity = 8
;T03 Holesize 3. = 0.900000 Tolerance = +0.000000/-0.000000 PLATED MM Quantity = 2
;T04 Holesize 4. = 1.800000 Tolerance = +0.000000/-0.000000 PLATED MM Quantity = 2
%
G90
T01
X16300000Y07550000
X16775000Y07675000
X16700000Y08200000
X16700000Y08425000
X16875000Y08475000
X16725000Y08700000
X16800000Y08750000
X16875000Y08825000
X16900000Y08925000
X16650000Y09075000
X16500000Y09225000
X16875000Y07675000
X16300000Y08025000
X16050000Y08175000
X16000000Y08375000
X16100000Y08675000
X16100000Y08800000
X16200000Y08975000
X16345200Y09150000
T02
X15737500Y11212500
X15200000Y10675000
X17470000Y12090000
X16920000Y13580000
X15370000Y12920000
X15370000Y11740000
X16925000Y10450000
X16930000Y10820000
T03
X15200000Y09855000
X17740000Y09855000
T04
X17105000Y09855000
X15835000Y09855000
M30
